<?xml version="1.0" standalone="no"?>
<!DOCTYPE svg PUBLIC "-//W3C//DTD SVG 20010904//EN"
 "http://www.w3.org/TR/2001/REC-SVG-20010904/DTD/svg10.dtd">
<svg version="1.0" xmlns="http://www.w3.org/2000/svg"
 width="801.000000pt" height="1280.000000pt" viewBox="0 0 801.000000 1280.000000"
 preserveAspectRatio="xMidYMid meet">
<metadata>
Created by potrace 1.15, written by Peter Selinger 2001-2017
</metadata>
<g transform="translate(0.000000,1280.000000) scale(0.100000,-0.100000)"
fill="#000000" stroke="none">
<path d="M6909 12784 c-187 -40 -376 -158 -500 -311 -121 -151 -170 -270 -227
-553 l-39 -192 131 6 c72 4 264 11 427 16 460 16 747 43 863 81 55 19 60 19
85 3 36 -23 57 -49 91 -115 51 -99 63 -167 55 -316 -9 -161 1 -203 45 -203 42
0 94 50 132 128 31 63 33 73 32 167 -2 188 -87 462 -230 745 -88 174 -154 272
-248 366 -65 65 -98 89 -166 122 -142 68 -302 88 -451 56z"/>
<path d="M5680 11190 c-481 -42 -1145 -309 -1600 -643 -167 -123 -213 -168
-258 -254 -118 -230 -237 -687 -249 -955 l-6 -137 -46 -15 c-112 -37 -297 -68
-626 -106 -653 -74 -1338 -224 -1850 -405 -258 -91 -250 -89 -370 -90 l-110 0
-109 58 c-93 50 -115 58 -154 55 -68 -5 -83 -31 -93 -162 -13 -161 -45 -214
-108 -181 -17 8 -39 15 -49 15 -28 0 -52 -32 -52 -69 0 -41 55 -101 92 -101
59 0 74 -66 43 -175 -19 -64 -14 -120 13 -134 25 -13 310 -31 491 -31 236 0
342 21 349 66 2 15 -5 24 -25 32 -53 22 -118 32 -208 32 -185 1 -288 30 -322
93 -27 49 -25 196 3 234 54 72 115 88 318 81 116 -4 127 -6 172 -33 67 -42
112 -129 164 -320 82 -296 127 -414 186 -484 34 -41 63 -38 87 9 26 49 16 134
-33 284 -89 276 -120 553 -80 699 14 48 66 100 116 114 21 7 100 19 174 28
181 22 547 75 930 135 567 89 702 105 1002 122 418 23 710 -25 888 -144 107
-71 126 -154 61 -272 -51 -92 -67 -152 -86 -311 -20 -178 -48 -213 -136 -173
-123 56 -484 16 -686 -77 -118 -54 -150 -102 -97 -144 23 -18 41 -21 123 -21
53 0 146 9 206 20 130 23 205 26 205 7 0 -7 -23 -30 -50 -50 -112 -84 -119
-177 -14 -177 50 0 109 28 182 83 118 91 142 85 142 -34 0 -101 -114 -238
-254 -305 -88 -42 -145 -45 -187 -10 -49 42 -139 51 -484 50 -529 0 -838 -46
-906 -132 -40 -51 -1 -141 107 -249 104 -104 259 -193 334 -193 10 0 34 13 55
30 51 41 91 51 221 57 181 9 390 -28 514 -90 58 -28 68 -38 93 -88 58 -116 59
-143 63 -1074 5 -1187 21 -1382 121 -1487 39 -41 67 -37 87 13 19 48 36 291
36 539 1 236 30 430 68 454 19 12 49 -34 70 -107 51 -173 180 -1008 213 -1377
15 -174 16 -571 0 -725 -56 -569 -321 -1769 -465 -2106 -31 -74 -118 -119
-270 -140 -74 -10 -117 -9 -288 6 -115 11 -201 23 -203 29 -2 6 -8 475 -14
1041 -26 2447 -32 2865 -41 2958 -16 157 -61 257 -117 257 -58 0 -79 -72 -48
-160 21 -59 19 -106 -5 -130 -37 -37 -61 -4 -98 130 -39 145 -55 246 -102 655
-46 406 -87 650 -136 807 -24 75 -38 97 -52 83 -25 -25 -17 -348 18 -725 46
-496 111 -834 190 -990 34 -67 68 -100 112 -109 27 -6 35 -14 45 -44 47 -140
55 -480 47 -1977 -7 -1495 -2 -1663 53 -1862 11 -43 30 -74 70 -120 79 -90
110 -161 128 -293 8 -61 18 -124 23 -141 39 -130 121 -157 339 -115 154 30
296 41 748 56 301 10 438 19 483 30 126 30 158 63 149 149 -11 106 -63 169
-173 207 -80 28 -143 38 -320 49 -210 13 -350 44 -376 84 -12 18 -9 96 8 194
20 116 61 278 158 611 344 1192 393 1730 266 2871 -11 96 -33 292 -49 435 -74
646 -100 1148 -65 1240 27 71 28 75 9 75 -10 0 -37 -11 -59 -24 -38 -22 -64
-30 -93 -27 -37 3 -2 107 73 224 59 91 308 412 310 401 2 -5 8 -193 14 -419
29 -1108 61 -1533 135 -1812 53 -200 117 -273 239 -273 120 0 137 63 88 320
-17 85 -35 187 -41 225 -87 588 -96 1700 -15 1857 11 21 22 28 43 28 34 0 49
-15 57 -61 9 -48 27 -74 67 -93 52 -24 94 -20 146 14 218 140 699 850 775
1145 13 46 13 67 5 99 -26 98 13 190 129 301 221 210 430 524 586 878 92 210
137 370 139 491 2 86 -17 123 -64 133 -41 8 -57 35 -69 122 -10 74 -5 162 25
421 7 63 12 117 10 118 -2 2 -15 -19 -30 -48 -102 -201 -354 -634 -400 -688
l-23 -27 -7 45 c-6 43 -1 143 27 571 20 308 -13 558 -74 559 -12 0 -31 -42
-47 -105 -13 -50 -15 -152 -16 -629 l0 -570 -235 -101 c-325 -140 -392 -176
-570 -308 -118 -88 -180 -146 -285 -267 -85 -99 -155 -156 -178 -147 -8 3 -17
19 -20 36 -11 54 -108 100 -215 101 -100 0 -192 76 -192 158 0 75 -103 207
-229 291 -150 102 -309 155 -496 167 -60 3 -122 13 -137 20 -57 29 -60 115
-12 374 85 463 275 730 733 1034 261 173 646 379 811 433 169 56 298 65 525
38 342 -42 415 -41 415 3 0 24 -64 84 -117 111 -92 46 -262 66 -433 51z m1084
-1982 c38 -54 5 -171 -119 -423 -138 -280 -257 -447 -471 -661 -129 -128 -285
-258 -424 -353 -85 -58 -583 -369 -604 -377 -8 -3 -9 80 -6 293 6 290 6 300
32 374 84 239 267 409 834 777 548 354 713 435 758 370z m-2256 -1671 c2 -103
0 -125 -23 -194 -35 -105 -134 -296 -219 -423 -83 -124 -191 -240 -224 -240
-23 0 -26 4 -36 52 -16 70 -95 124 -270 183 -68 23 -124 47 -130 57 -13 22 18
57 124 138 102 78 151 102 203 98 39 -3 46 -8 87 -64 25 -34 55 -67 67 -72 46
-23 85 30 250 337 163 303 167 305 171 128z m1552 47 c0 -76 -278 -482 -688
-1008 -85 -108 -86 -109 -103 -87 -9 11 -47 108 -82 214 -36 105 -78 225 -92
266 -24 66 -26 79 -15 114 24 81 119 158 345 281 255 137 499 236 588 236 37
0 47 -4 47 -16z m-2320 -7082 c58 -61 73 -71 135 -90 39 -11 114 -23 170 -27
55 -3 115 -11 134 -17 28 -9 31 -12 19 -24 -35 -35 -442 -114 -588 -114 -189
0 -310 54 -310 139 0 88 244 237 345 209 17 -4 58 -37 95 -76z"/>
<path d="M7155 10939 c-103 -34 -247 -68 -288 -69 -40 0 -87 -49 -87 -89 0
-18 9 -40 21 -52 18 -18 30 -21 98 -18 111 6 220 60 314 157 67 70 83 103 50
101 -10 0 -58 -14 -108 -30z"/>
<path d="M5684 10090 c-32 -16 -101 -64 -153 -105 -195 -158 -345 -232 -604
-299 -167 -43 -237 -70 -289 -109 -118 -91 -112 -172 27 -342 100 -122 165
-262 165 -356 0 -49 35 -160 61 -193 77 -97 159 123 118 316 -15 68 -42 122
-91 178 -104 118 -114 237 -27 303 40 30 84 42 204 56 104 13 150 27 260 83
206 104 412 273 469 385 19 38 21 84 4 101 -21 21 -82 13 -144 -18z"/>
<path d="M2919 7976 c-47 -14 -118 -44 -334 -144 -218 -101 -340 -135 -525
-147 -257 -16 -446 -79 -500 -168 -24 -39 -25 -75 -4 -105 13 -19 24 -22 75
-22 69 0 135 16 449 107 282 81 411 111 522 119 73 6 91 4 114 -11 33 -21 43
-12 55 51 5 26 16 58 25 72 21 32 89 62 142 62 78 0 141 48 142 107 0 45 -9
62 -41 78 -33 18 -58 18 -120 1z"/>
</g>
</svg>
